{
  "findAllChildActiveSubsidies" : {
    "transaction" : "findAllChildActiveSubsidies",
    "sampleCount" : 9887,
    "errorCount" : 0,
    "errorPct" : 0.0,
    "meanResTime" : 150.91989481136864,
    "medianResTime" : 143.0,
    "minResTime" : 34.0,
    "maxResTime" : 913.0,
    "pct1ResTime" : 232.0,
    "pct2ResTime" : 257.0,
    "pct3ResTime" : 326.0,
    "throughput" : 32.962270252609606,
    "receivedKBytesPerSec" : 36.887901802681455,
    "sentKBytesPerSec" : 53.724637745708435
  },
  "getAllChildDiscounts" : {
    "transaction" : "getAllChildDiscounts",
    "sampleCount" : 10556,
    "errorCount" : 0,
    "errorPct" : 0.0,
    "meanResTime" : 141.28078817733964,
    "medianResTime" : 133.0,
    "minResTime" : 27.0,
    "maxResTime" : 914.0,
    "pct1ResTime" : 220.0,
    "pct2ResTime" : 248.0,
    "pct3ResTime" : 316.0,
    "throughput" : 35.19147616840968,
    "receivedKBytesPerSec" : 21.513539142016075,
    "sentKBytesPerSec" : 57.97658232041712
  },
  "findAllAbsentForVoidingSubsidyByChild" : {
    "transaction" : "findAllAbsentForVoidingSubsidyByChild",
    "sampleCount" : 8834,
    "errorCount" : 0,
    "errorPct" : 0.0,
    "meanResTime" : 169.03463889517835,
    "medianResTime" : 161.0,
    "minResTime" : 43.0,
    "maxResTime" : 888.0,
    "pct1ResTime" : 253.0,
    "pct2ResTime" : 278.0,
    "pct3ResTime" : 345.64999999999964,
    "throughput" : 29.44705929412392,
    "receivedKBytesPerSec" : 18.43316895266937,
    "sentKBytesPerSec" : 39.19564630653409
  },
  "invoicesByFkChild" : {
    "transaction" : "invoicesByFkChild",
    "sampleCount" : 7877,
    "errorCount" : 0,
    "errorPct" : 0.0,
    "meanResTime" : 189.67208328043716,
    "medianResTime" : 182.0,
    "minResTime" : 49.0,
    "maxResTime" : 915.0,
    "pct1ResTime" : 277.0,
    "pct2ResTime" : 301.0,
    "pct3ResTime" : 372.0,
    "throughput" : 26.256929235959024,
    "receivedKBytesPerSec" : 74.97876411055776,
    "sentKBytesPerSec" : 76.30920059200592
  },
  "findAllChildHistorySubsidiesForBillingAdjustment" : {
    "transaction" : "findAllChildHistorySubsidiesForBillingAdjustment",
    "sampleCount" : 5000,
    "errorCount" : 0,
    "errorPct" : 0.0,
    "meanResTime" : 299.0376000000001,
    "medianResTime" : 291.0,
    "minResTime" : 93.0,
    "maxResTime" : 1121.0,
    "pct1ResTime" : 400.0,
    "pct2ResTime" : 430.9499999999998,
    "pct3ResTime" : 494.97999999999956,
    "throughput" : 16.661834734593633,
    "receivedKBytesPerSec" : 23.924539748056397,
    "sentKBytesPerSec" : 29.955505611705938
  },
  "Total" : {
    "transaction" : "Total",
    "sampleCount" : 49991,
    "errorCount" : 0,
    "errorPct" : 0.0,
    "meanResTime" : 209.2435438378913,
    "medianResTime" : 160.0,
    "minResTime" : 27.0,
    "maxResTime" : 5071.0,
    "pct1ResTime" : 280.0,
    "pct2ResTime" : 324.0,
    "pct3ResTime" : 447.9900000000016,
    "throughput" : 165.78673334704084,
    "receivedKBytesPerSec" : 214.22846037439726,
    "sentKBytesPerSec" : 316.8876103509342
  },
  "findAllInvoice" : {
    "transaction" : "findAllInvoice",
    "sampleCount" : 393,
    "errorCount" : 0,
    "errorPct" : 0.0,
    "meanResTime" : 3818.6692111959314,
    "medianResTime" : 3733.0,
    "minResTime" : 2355.0,
    "maxResTime" : 5071.0,
    "pct1ResTime" : 4307.6,
    "pct2ResTime" : 4622.9,
    "pct3ResTime" : 4962.360000000001,
    "throughput" : 1.303318321405594,
    "receivedKBytesPerSec" : 3.859869936583449,
    "sentKBytesPerSec" : 4.224329598383951
  },
  "bankAccountInfoByIDChild" : {
    "transaction" : "bankAccountInfoByIDChild",
    "sampleCount" : 7444,
    "errorCount" : 0,
    "errorPct" : 0.0,
    "meanResTime" : 200.6401128425578,
    "medianResTime" : 192.0,
    "minResTime" : 56.0,
    "maxResTime" : 915.0,
    "pct1ResTime" : 292.0,
    "pct2ResTime" : 322.0,
    "pct3ResTime" : 388.5500000000002,
    "throughput" : 24.813250622497925,
    "receivedKBytesPerSec" : 35.712315854780485,
    "sentKBytesPerSec" : 57.11409347385509
  }
}